# FUNCIONES
#################

printlog()
{
    echo "$@" >> $DirLog/$SHELL_LOG
}

Mensaje ()
{
        sFec=`date +'%d/%m %X'`
        echo "($sFec) $1"
}

Valida_Archivo ()
{ #Parametro: $1 = Ruta/nombre_archivo


#verifica existencia
if [ ! -f $1 ]
then 
	echo " "
	Mensaje "ERROR: No se encuentra el archivo $1"
	printlog "ERROR: No se encuentra el archivo $1"
	echo " "
	exit 2
fi
#verifica archivo disinto de vacio
if test -s $1
then
	Mensaje "Archivo $1 OK"
	printlog "Archivo $1 OK"
else
	Mensaje "Error, Archivo sin datos $1"
	printlog "Error, Archivo sin datos $1"
	exit 0
fi

}

Eliminar_Archivo ()
{
rm -f $1
}



Ejecuta_Truncate ()
{ #paremtero: $1 = BD  $2 = Nombre_Tabla

printlog "Borrando registros tabla $2..."
Mensaje "  Borrando registros tabla $2..."

	
Mensaje "Ejecuta Truncate..."
printlog "Ejecuta Truncate..."
isql -U${SYB_U} -S${DSQUERY} << eof >> $DirLog/$ARCHLOG
`echo ${SYB_P}`
use $1 
go
truncate table $2
go
eof

		#--------------------------------------------------------------------------------
		# Siempre validar que el comando se ejecuto en forma correcta
		#--------------------------------------------------------------------------------
		if [[ $? != 0 ]] then
		   Mensaje "ERROR : La ejecucion del Truncate a la tabla $2 se cancelo"
		   printlog "ERROR : La ejecucion del  Truncate a la tabla $2 se cancelo"
		   exit 2
		elif [ -f $DirLog/$ARCHLOG ]; then
		   verE=`egrep -c 'Msg |CT-LIBRARY error:|CS-LIBRARY error:' $DirLog/$ARCHLOG `
		   if [[ "${verE}" != "0" ]]; then
		        Mensaje "ERROR : Sybase retorno una excepcion al ejecutar Truncata a la tabla $2"
				printlog "ERROR : Sybase retorno una excepcion al ejecutar Truncata a la tabla $2"
		      exit 2
		   fi
		   else
		       Mensaje "ERROR : La ejecucion del Truncate a la tabla $2 se cancelo"
			   printlog "ERROR : La ejecucion del Truncate a la tabla $2 se cancelo"
		       exit 2
		 fi

Mensaje "...Ejecucion del Truncate $2 Ok"
printlog "...Ejecucion del Truncate $2 Ok"
echo " "
}


Realiza_BcpIn ()
{ # Paratmeros: $1 = BD    $2 = nombre_tabla   $3 = Ruta/nombre_archivo $4 = separador

printlog "Carga archivo $3 en tabla $2"
Mensaje "Carga archivo $3 en tabla $2"

if [ -s $3 ]
    then
	numreg=`wc -l $3| awk '{ print $1 }'`
	Mensaje "Registros a Cargar en tabla $2: $numreg"
	printlog "Registros a Cargar en tabla $2: $numreg"  

	
	bcp $1..$2 in $3 -U${SYB_U} -P${SYB_P} -S${DSQUERY} -c -A8192 -b1000  -Jiso_1 -t $4 -e $DirLog/shell_bcp.err >> $DirLog/$ARCHLOG

	#--------------------------------------------------------------------------------
	# Siempre validar que el comando se ejecuto en forma correcta
	#--------------------------------------------------------------------------------
	if [[ $? != 0 ]] then 
		if [ -f $DirLog/$ARCHLOG ]; then
			Eper=`egrep -c 'with unique index' $DirLog/$ARCHLOG`
			if [[ "${Eper}" != "0" ]]; then
				Mensaje "ERROR : periodo cargado ya existe en BD"
				printlog "ERROR : periodo cargado ya existe en BD"
				exit 2
			fi
		fi
	   Mensaje "ERROR : El BCP IN a la tabla $2 se cancelo"
	   printlog "ERROR : El BCP IN a la tabla $2 se cancelo"
	   exit 2
	fi
	if [ -f $DirLog/$ARCHLOG ]; then
		Eper=`egrep -c 'with unique index' $DirLog/$ARCHLOG`
		if [[ "${Eper}" != "0" ]]; then
			Mensaje "ERROR : periodo cargado ya existe en BD"
			printlog "ERROR : periodo cargado ya existe en BD"
			exit 2
		fi
	fi
	if [ -f $DirLog/$ARCHLOG ]; then
	   verE=`egrep -c 'Msg |CT-LIBRARY error:|CS-LIBRARY error:|CSLIB Message:' $DirLog/$ARCHLOG`
	   if [[ "${verE}" != "0" ]]; then
	      Mensaje "ERROR : BCP IN a la tabla $2 retorno una excepcion"
	      printlog "ERROR : BCP IN a la tabla $2 retorno una excepcion"
	      exit 2
	   fi
	fi
	Mensaje "...carga de archivo $3 OK"
	printlog "...carga de archivo $3 OK"
	Mensaje ""
	printlog ""	
	
else
	Mensaje "Archivo $3 no se genero con datos"
	printlog "Archivo $3 no se genero con datos"
	exit 0
fi
}


Realiza_BcpOut ()
{ # Paratmeros: $1 = BD    $2 = nombre_tabla_vista   $3 = Ruta/nombre_archivo $4 = separador

printlog "Genera archivo $3"
Mensaje "Genera archivo $3"

Eliminar_Archivo $3

bcp $1..$2 out $3 -U${SYB_U} -P${SYB_P} -S${DSQUERY} -c -A8192 -b1000  -Jiso_1  -t $4 -e $DirLog/shell_bcp.err >> $DirLog/$ARCHLOG

	#--------------------------------------------------------------------------------
	# Siempre validar que el comando se ejecuto en forma correcta
	#--------------------------------------------------------------------------------
if [[ $? != 0 ]] then 
	   Mensaje "ERROR : El BCP OUT a la tabla $2 se cancelo"
	   printlog "ERROR : El BCP OUT a la tabla $2 se cancelo"
	   exit 2
elif [ -f $DirLog/$ARCHLOG ]; then
	   verE=`egrep -c 'Msg |CT-LIBRARY error:|CS-LIBRARY error:|CSLIB Message:' $DirLog/$ARCHLOG`
	   if [[ "${verE}" != "0" ]]; then
	      Mensaje "ERROR : BCP OUT a la tabla $2 retorno una excepcion"
	      printlog "ERROR : BCP OUT a la tabla $2 retorno una excepcion"
	      exit 2
	   fi
fi
	
	Mensaje "...generacion de archivo $3 ...OK "
	printlog "...generacion de archivo $3 ...OK "

}

Realiza_Conexion ()
{

#---------------------------------------------------------------------
#  OBTIENE DATOS DE CONEXION A LA BASE DE DATOS
#---------------------------------------------------------------------

printlog " "
printlog "*********************************"
printlog "*   OBTTENE DATOS DE CONEXION   *"
printlog "*       A LA BASE DE DATOS      *"
printlog "*********************************"
echo " "
Mensaje "--> Datos de conexion a BD:"

Mensaje "Obteniendo Usuario y Password para ambiente sybase..."
printlog "Obteniendo Usuario y Password para ambiente sybase..."


for uyprsp in `UyPuser $1`
do
   uypDa[$uypcnt]=$uyprsp
      (( uypcnt=$uypcnt+1))
done
uypcnt=0
if [ "${uypDa[0]}" = "Falla" ] ; then
   echo "No se pudo obtener la clave por ${uypDa[1]}"  >> $HOME/log/$SHELL_LOG
   echo "No se pudo obtener la clave por ${uypDa[1]}" 
   exit 2
 else
 
   SYB_U=${uypDa[0]}
   SYB_P=${uypDa[1]}
   
   Mensaje "Usuario y Passwword...OK"
   printlog "Usuario y Passwword...OK"
   
fi
}

Elimina_periodo ()
{

printlog "borrando periodo..."
Mensaje "borrando periodo..."
if [ $6 = "R" ]
	then
isql -U${SYB_U} -S${DSQUERY} << eof
`echo ${SYB_P}`
use $1
go
delete from
	$2
	where
		$3 = $4	
go
eof
	else
isql -U${SYB_U} -S${DSQUERY} << eof
`echo ${SYB_P}`
use $1
go
delete from
	$2
	where
		$3 <= $5
go
eof
fi


		#--------------------------------------------------------------------------------
		#Siempre validar que el comando se ejecuto en forma correcta
		#--------------------------------------------------------------------------------
		if [[ $? != 0 ]] then
		   Mensaje "  ERROR : La ejecucion del borrado"
		   printlog "  ERROR : La ejecucion del borrado"
		   exit 2
		elif [ -f $DirLog/$ARCHLOG ]; then
		   verE=`egrep -c 'Msg |CT-LIBRARY error:|CS-LIBRARY error:' $DirLog/$ARCHLOG `
		   if [[ "${verE}" != "0" ]]; then
		        Mensaje "  ERROR : Sybase retorno una excepcion"
			cat $DirLog/$ARCHLOG
		      exit 2
		   fi
		   else
		       Mensaje "  ERROR : No se Elimino el periodo"
		       cat $DirLog/$ARCHLOG
		       exit 2
		   fi
		printlog "...La ejecucion del borrado OK"
		Mensaje "...La ejecucion del borrado OK"
}


Ejecuta_Query()
{
isql -U${SYB_U} -P${SYB_P} -S${DSQUERY} -i$DirDat/$1 >> $DirLog/$ARCHLOG
#--------------------------------------------------------------------------------
	# Siempre validar que el comando se ejecuto en forma correcta
	#--------------------------------------------------------------------------------
	if [[ $? != 0 ]] then
	   Mensaje "ERROR : La ejecucion de la query se cancelo"
	   printlog "ERROR : La ejecucion de la query se cancelo"
	   exit 2
	elif [ -f $DirLog/$ARCHLOG ]; then
	   verE=`egrep -c 'Msg |CT-LIBRARY error:|CS-LIBRARY error:' $DirLog/$ARCHLOG `
	   if [[ "${verE}" != "0" ]]; then
	        Mensaje "ERROR : Sybase retorno una excepcion"
			printlog "ERROR : Sybase retorno una excepcion"
	      exit 2
	   fi
	   else
	       Mensaje "ERROR : La ejecucion de la query se cancelo"
		   printlog "ERROR : La ejecucion de la query se cancelo"
	       exit 2
	   fi
 Mensaje "--> Ejecucion termina ok:"
}

Mantiene_Historia()
{
#$1=bd 
#$2=tabla 
#$3=sigla campo 
#$4=cantidad de meses
Mensaje "Realizando consulta..."
printlog "Realizando consulta..."

isql -U${SYB_U} -S${DSQUERY} << eof >> $DirLog/$ARCHLOG
`echo ${SYB_P}`
use $1 
go
select
top $4 ${3}_fec
into #fechas
from $2
group by ${3}_fec
order by ${3}_fec desc
go
select
top 1 ${3}_fec
into #fecha2
from #fechas
order by ${3}_fec asc
go
select count(1) as cantidad into #cantidad from $2 where ${3}_fec < (select ${3}_fec from #fecha2)
go
while (select cantidad from #cantidad )>0
begin
	delete top 10000 from $2 where ${3}_fec < (select ${3}_fec from #fecha2)
	COMMIT
	update #cantidad set cantidad=(cantidad-10000)
end 
go
eof
		#--------------------------------------------------------------------------------
		# Siempre validar que el comando se ejecuto en forma correcta
		#--------------------------------------------------------------------------------
		if [[ $? != 0 ]] then
		   Mensaje "ERROR : La ejecucion de la conuslta se cancelo"
		   printlog "ERROR : La ejecucion de la conuslta se cancelo"
		   exit 2
		elif [ -f $DirLog/$ARCHLOG ]; then
		   verE=`egrep -c 'Msg |CT-LIBRARY error:|CS-LIBRARY error:' $DirLog/$ARCHLOG `
		   if [[ "${verE}" != "0" ]]; then
		        Mensaje "ERROR : Sybase retorno una excepcion al ejecutar la consulta"
				printlog "ERROR : Sybase retorno una excepcion al ejecutar la consulta"
		      exit 2
		   fi
		   else
		       Mensaje "ERROR : La ejecucion de la conuslta se cancelo"
			   printlog "ERROR : La ejecucion de la conuslta se cancelo"
		       exit 2
		 fi

Mensaje "...Ejecucion de la conuslta Ok"
printlog "...Ejecucion de la conuslta Ok"
echo " "
}

formato_archivos()
{
#$1=nombre_archivo $2=nombre_archivo_de_datos
	grep -i " $1" $2 > tmp1.txt
	awk 'function rtrim(s) { sub(/[ \t\r\n]+$/, "", s); return s }{print rtrim($0)}' tmp1.txt > tmp.txt
	rm -f tmp1.txt
	cant_campos=`sed -n 1p tmp.txt | awk 'BEGIN {FS="|"}; {print NF}'`
	tc=`expr $cant_campos - 1`
	echo "cant_campos = "$cant_campos
	cut -f 2-$cant_campos -d"|" tmp.txt > $3/$1.txt
	rm -f tmp.txt
	sed "/${1}|/d" $2 > tmp_log.txt
	mv tmp_log.txt $2
}

leer_lista()
{
#$1=nombre lista, $2=archivo de datos, $3=directorio en donde dejar archivos
	Num_Lineas=`wc -l $1 | awk '{ printf "%i", $1 }'`
	cont=1
	while [ $cont -le $Num_Lineas ]
	do
		arch=`sed -n ${cont}p $1`
		formato_archivos $arch $2 $3
		cont=`expr $cont + 1`
	done
}

Ejecuta_Consulta_BWS_Extract_Data()
{

	Mensaje "Comienza Ejecucion de BWS_Extract_Data"
	printlog "Comienza Ejecucion de BWS_Extract_Data"
	echo "EJECUCION de BWS_Extract_Data" >> $DirLog/$ARCHLOG
		
isql -w2000 -S$ServerIQ -U$SYB_U <<EOF >> $DirLog/$ARCHLOG 2>&1
`echo ${SYB_P}`

-- print 'crea tabla de paso'
create table #carga_wholesale
(
ano_mes 			 integer,
cli					 char(12),
oficina				 char(5) NULL,
dec_rut 			 integer  NULL,
dec_ejecutivo 		 char(15) NULL,
dec_dv 				 char(1) NULL,
dec_macrobanca 		 char(20) NULL,
dec_plataforma		 char(20) NULL,
dec_segmento		 char(20) NULL,
dec_Clasificacion	 char(5) NULL,
dec_nom 			 char(50) null,
dec_lcg_uf_mto		 numeric(18,4) NULL,
dec_mto_lcg_mto		 numeric(18,0) NULL,
dec_antiguedad		 integer NULL,
dec_ventas_anuales_mto	 numeric(18,0) NULL,
dec_ventas_anuales_fec	 integer NULL,
dec_sow_pct			 numeric(18,4) NULL,
dec_vencimiento_fec  integer NULL,
poa_factoring_mto 	 numeric(18,0) NULL,
poa_contingente_mto	 numeric(18,0) NULL,
poa_hipotecario_mto	 numeric(18,0) NULL,
poa_leasing_mto		 numeric(18,0) NULL,
poa_creditos_lp_mto	 numeric(18,0) NULL,
poa_creditos_cp_mto	 numeric(18,0) NULL,
poa_comex_mto		 numeric(18,0) NULL,
poa_tot_col_int_mto	 numeric(18,0) NULL,
poa_cct_mn_mto		 numeric(18,0) NULL,
poa_cct_mx_mto		 numeric(18,0) NULL,
poa_otros_vistas_mn_mto  numeric(18,0) NULL,
poa_otros_vistas_mx_mto  numeric(18,0) NULL,
poa_tot_saldo_vistas_mto  numeric(18,0) NULL,
mib_mar_fin_acu_col_mto  numeric(18,0) NULL,
mib_mar_fin_acu_vis_mto  numeric(18,0) NULL,
mib_mar_fin_acu_fact_mto  numeric(18,0) NULL,
mib_mar_fin_acu_lea_mto  numeric(18,0) NULL,
mib_com_acu_gan_tot_mto  numeric(18,0) NULL,
mib_util_mes_acum_mto 	 numeric(18,0) NULL,
mib_margen_mto			 numeric(24,0) NULL,
eva_margen_bruto_bci_mto  numeric(18,4) NULL,
eva_margen_bruto_fil_mto  numeric(18,4) NULL,
eva_costo_bci_mto		 numeric(18,4) NULL,
eva_costo_fil_mto		 numeric(18,4) NULL,
eva_comercial_cont_mto	 numeric(18,4) NULL,
eva_comercial_efe_mto	 numeric(18,4) NULL,
eva_factoring_cont_mto	 numeric(18,4) NULL,
eva_factoring_efe_mto	 numeric(18,4) NULL,
eva_lea_contingente_mto	 numeric(18,4) NULL,
eva_lea_efectiva_mto	 numeric(18,4) NULL,
eva_miami_contingente_mto  numeric(18,4) NULL,
eva_miami_efectiva_mto	 numeric(18,4) NULL,
eva_eva_mto				 numeric(18,4) NULL,
eva_riesgo_total_pct	 numeric(18,4) NULL,
eva_capital_total_mto	 numeric(18,4) NULL,
sow_deuda_sbif_mto 		 numeric(18,0) NULL,
sow_deuda_bci_mto		 numeric(18,0) NULL,
sow_factor_pct 			 numeric(18,4) NULL,
esv_saldos_mto			 numeric(18,0) NULL,
esc_col_mes_mto			 numeric(18,0) NULL,
coa_col_acumuladas_mto	 numeric(18,0) NULL,
cru_spot_mx_ind			 integer NULL,
cru_forward_ind			 integer NULL,
cru_derivados_ind		 integer NULL,
hcp_tipo_gls 			 char(10) NULL,
hcp_spread_pct			 numeric(18,4) NULL,
hcp_volumen_mto 		 numeric(18,4) NULL,
hlp_tipo_gls 			 char(10) NULL,
hlp_spread_pct			 numeric(18,4) NULL,
hlp_volumen_mto			 numeric(18,4) NULL
)
go

select max(ano_mes) as fec_clieje
into #fecCliEje
from temporal.arb_clieje_datsum
go

select distinct trim(bca) as bca, macro_banca as desc_bca
into #bca
from temporal.arb_clieje_datsum
where ano_mes=(select fec_clieje from #fecCliEje)
and trim(bca) in (${BANCAS})
go


create table #carga_wholesale1
(
ano_mes 			 integer,
cli					 char(12),
oficina				 char(5) NULL,
dec_rut 			 integer  NULL,
dec_ejecutivo 		 char(15) NULL,
dec_dv 				 char(1) NULL,
dec_macrobanca 		 char(20) NULL
)
go

insert into #carga_wholesale1(ano_mes,cli,oficina,dec_rut,dec_dv,dec_macrobanca,dec_ejecutivo)
Select a.ano_mes,
trim(cliente),
a.oficina,
trim(a.rut),
trim(a.vr),
trim(b.desc_bca),
a.ejecutivo
from dba.cli_awk as a
join #bca b
on trim(a.banca) = b.bca
where a.ano_mes between ${AnoMesIni} and ${AnoMes}
and a.ind_rut = ''
and a.ext_rut = ''
and a.rut<>'CLI_X'
go

create table #carga_wholesale2
(
ano_mes 			 integer,
cli					 char(12),
oficina				 char(5) NULL,
dec_rut 			 integer  NULL,
dec_ejecutivo 		 char(15) NULL,
dec_dv 				 char(1) NULL,
dec_macrobanca 		 char(20) NULL,
dec_plataforma		 char(20) NULL,
dec_segmento		 char(20) NULL,
dec_ventas_anuales_mto	 numeric(18,0) NULL,
dec_ventas_anuales_fec	 integer NULL,
dec_lcg_uf_mto		 numeric(16,4) NULL,
dec_mto_lcg_mto		 numeric(18,0) NULL,
dec_vencimiento_fec  integer NULL,		
dec_antiguedad		 integer NULL,
dec_sow_pct			 numeric(18,4) NULL,
dec_Clasificacion	 char(5) NULL,
dec_nom				 char(50) NULL
)
go

insert into #carga_wholesale2(ano_mes,cli,oficina,dec_rut,dec_ejecutivo,dec_dv,dec_macrobanca,dec_plataforma,dec_segmento,dec_ventas_anuales_mto,dec_ventas_anuales_fec,dec_lcg_uf_mto,
dec_mto_lcg_mto,dec_vencimiento_fec,dec_antiguedad,dec_sow_pct,dec_Clasificacion,dec_nom)
Select a.ano_mes,
a.cli,
a.oficina,
a.dec_rut,
a.dec_ejecutivo,
a.dec_dv,
a.dec_macrobanca,
b.plataforma,
b.regional,
b.sdo_pso,
b.fec_bal,
b.monto_LDC_global_vig_UF,
b.monto_LDC_global_vig_UF * c.UF,
CASE WHEN TRIM(b.fecha_venc_LDC_global_vig) = '' THEN 19000101 ELSE CONVERT(INTEGER,TRIM(b.fecha_venc_LDC_global_vig)) END,
b.fec_aper,
b.factor_deuda_vig,
b.cla_sbif_mes,
b.nom_cli
from #carga_wholesale1 a
left join temporal.arb_clieje_datsum as b
on a.dec_rut = convert(integer,b.rut_cli)
and b.rut_cli not in ('','CLI_X','000CLI_X','00000CLI','00000BAN')
LEFT OUTER JOIN (select vcb_fec_1/100 as fec, VCB_VAL AS UF
from cinfor.cam_dia 
where vcb_1 = '0998'
and   vcb_2 = '0999'
and vcb_fec_1 = (SELECT MAX (vcb_fec_1) FROM cinfor.cam_dia  WHERE vcb_fec_1/100 = ${AnoMes})) c 	
ON a.ano_mes = c.fec
go

create table #carga_wholesale3
(
ano_mes 			 integer,
cli					 char(12),
oficina				 char(5) NULL,
dec_rut 			 integer  NULL,
dec_ejecutivo 		 char(15) NULL,
dec_dv 				 char(1) NULL,
dec_macrobanca 		 char(20) NULL,
dec_plataforma		 char(20) NULL,
dec_segmento		 char(20) NULL,
dec_ventas_anuales_mto	 numeric(18,0) NULL,
dec_ventas_anuales_fec	 integer NULL,
dec_lcg_uf_mto		 numeric(16,4) NULL,
dec_mto_lcg_mto		 numeric(18,0) NULL,
dec_vencimiento_fec  integer NULL,		
dec_antiguedad		 integer NULL,
dec_sow_pct			 numeric(18,4) NULL,
dec_Clasificacion	 char(5) NULL,
dec_nom				 char(50) NULL,
sow_deuda_sbif_mto	 numeric(12,0) NULL,
mib_mar_fin_acu_fact_mto numeric(12,0) NULL
)
go

select ano_mes,convert(integer,rut) as rut_cli,sum(mfi) as mfi
into #mrg_fact
from bsc.monto_fact_mes
where trim(rut) not in ('','000CLI_X','000cli_x','1       ')
and ano_mes between ${AnoMesIni} and ${AnoMes}
group by ano_mes,rut_cli
go
-- Tabla sow sbif

create table #deuda_sbif_tmp(
ano_mes integer,
cli char(12),
deuda_sbif numeric(14,0)
)
go
insert into #deuda_sbif_tmp
SELECT
CASE
WHEN SUBSTRING(CONVERT(CHAR(6),a.ano_mes),5,2) = '01' 
THEN a.ano_mes - 89
ELSE a.ano_mes - 1
END ano_mes,
trim(a.cic) AS cli,
isnull(convert(integer,a.deu_ncn),0)*1000 as deuda_sbif
FROM 
cinfor.cli_dsf_tenencia a,
(SELECT cli from #carga_wholesale2 group by cli) b
WHERE
trim(a.cic) = trim(b.cli)
go
insert into #carga_wholesale3(ano_mes,cli,oficina,dec_rut,dec_ejecutivo,dec_dv,dec_macrobanca,dec_plataforma,dec_segmento,dec_ventas_anuales_mto,dec_ventas_anuales_fec,dec_lcg_uf_mto,
dec_mto_lcg_mto,dec_vencimiento_fec,dec_antiguedad,dec_sow_pct,dec_Clasificacion,dec_nom,sow_deuda_sbif_mto,mib_mar_fin_acu_fact_mto)
Select a.ano_mes,
a.cli,
a.oficina,
a.dec_rut,
a.dec_ejecutivo,
a.dec_dv,
a.dec_macrobanca,
a.dec_plataforma,
a.dec_segmento,
a.dec_ventas_anuales_mto,
a.dec_ventas_anuales_fec,
a.dec_lcg_uf_mto,
a.dec_mto_lcg_mto,
a.dec_vencimiento_fec,
a.dec_antiguedad,
a.dec_sow_pct,
a.dec_Clasificacion,
a.dec_nom,
b.deuda_sbif,
isnull(c.mfi,0)
from #carga_wholesale2 a
left join #deuda_sbif_tmp as b
on trim(a.cli) = trim(b.cli)
and a.ano_mes = b.ano_mes
left outer join #mrg_fact as c
on a.ano_mes = c.ano_mes
and a.dec_rut = c.rut_cli

go

create table #carga_wholesale4
(
ano_mes 			 integer,
cli					 char(12),
oficina				 char(5) NULL,
dec_rut 			 integer  NULL,
dec_ejecutivo 		 char(15) NULL,
dec_dv 				 char(1) NULL,
dec_macrobanca 		 char(20) NULL,
dec_plataforma		 char(20) NULL,
dec_segmento		 char(20) NULL,
dec_ventas_anuales_mto	 numeric(18,0) NULL,
dec_ventas_anuales_fec	 integer NULL,
dec_lcg_uf_mto		 numeric(16,4) NULL,
dec_mto_lcg_mto		 numeric(18,0) NULL,
dec_vencimiento_fec  integer NULL,		
dec_antiguedad		 integer NULL,
dec_sow_pct			 numeric(18,4) NULL,
dec_Clasificacion	 char(5) NULL,
dec_nom				 char(50) NULL,
sow_deuda_sbif_mto	 numeric(12,0) NULL,
poa_factoring_mto	 numeric(12,0) NULL,
mib_mar_fin_acu_fact_mto numeric(12,0) NULL,
poa_leasing_mto		 numeric(12,0) NULL,
poa_contingente_mto	 numeric(12,0) NULL,
poa_hipotecario_mto	 numeric(12,0) NULL,
poa_creditos_cp_mto	 numeric(12,0) NULL,
poa_creditos_lp_mto	 numeric(12,0) NULL,
poa_comex_mto	 	 numeric(12,0) NULL,
poa_tot_col_int_mto	 numeric(12,0) NULL,
coa_col_acumuladas_mto	 numeric(12,0) NULL,
mib_mar_fin_acu_col_mto	 numeric(12,0) NULL,
esc_col_mes_mto		 numeric(12,0) NULL,
poa_cct_mn_mto		 numeric(12,0) NULL,
poa_cct_mx_mto		 numeric(12,0) NULL,
poa_otros_vistas_mx_mto	 numeric(12,0) NULL,
poa_otros_vistas_mn_mto	 numeric(12,0) NULL,
poa_tot_saldo_vistas_mto numeric(12,0) NULL,
esv_saldos_mto	 		 numeric(12,0) NULL,
mib_mar_fin_acu_vis_mto	 numeric(12,0) NULL,
sow_deuda_bci_mto	 numeric(12,0) NULL,
sow_factor_pct	 numeric(12,4) NULL
)
go

select 
ano_mes,
cli,
sum(saldop) as saldop, 
sum(margen_financiero) as margen_financiero
into #sdo_mrg_col
from dba.margen as a,dba.lineas as b
where a.ano_mes between ${AnoMesIni} and ${AnoMes}
and b.linea_grp1 = '69U'
and b.linea_grp2 in( 'ACT','PSV')
and b.linea_grp3 = 'COL'
and a.linea = b.linea
group by ano_mes,cli
go


select ano_mes,cli,sum(saldop) as saldop, sum(margen_financiero) as margen_financiero
into #tot_sdo_vista
from dba.margen as a,dba.lineas as b
where a.ano_mes between ${AnoMesIni} and ${AnoMes}	
and b.linea_grp1 = '69U'
and b.linea_grp2 in( 'ACT','PSV')
and b.linea_grp3 = 'DVN'
and a.linea = b.linea
group by ano_mes,cli
go

insert into #carga_wholesale4(ano_mes,cli,oficina,dec_rut,dec_ejecutivo,dec_dv,dec_macrobanca,dec_plataforma,dec_segmento,dec_ventas_anuales_mto,dec_ventas_anuales_fec,dec_lcg_uf_mto,
dec_mto_lcg_mto,dec_vencimiento_fec,dec_antiguedad,dec_sow_pct,dec_Clasificacion,dec_nom,sow_deuda_sbif_mto,poa_factoring_mto,mib_mar_fin_acu_fact_mto,poa_leasing_mto,
poa_contingente_mto,poa_hipotecario_mto,poa_creditos_cp_mto,poa_creditos_lp_mto,poa_comex_mto,poa_tot_col_int_mto,coa_col_acumuladas_mto,mib_mar_fin_acu_col_mto,
esc_col_mes_mto,poa_cct_mn_mto,poa_cct_mx_mto,poa_otros_vistas_mx_mto,poa_otros_vistas_mn_mto,poa_tot_saldo_vistas_mto,esv_saldos_mto,mib_mar_fin_acu_vis_mto,sow_deuda_bci_mto,sow_factor_pct)
Select a.ano_mes,
a.cli,
a.oficina,
a.dec_rut,
a.dec_ejecutivo,
a.dec_dv,
a.dec_macrobanca,
a.dec_plataforma,
a.dec_segmento,
a.dec_ventas_anuales_mto,
a.dec_ventas_anuales_fec,
a.dec_lcg_uf_mto,
a.dec_mto_lcg_mto,
a.dec_vencimiento_fec,
a.dec_antiguedad,
a.dec_sow_pct,
a.dec_Clasificacion,
a.dec_nom,
a.sow_deuda_sbif_mto,
l.saldo_acum_fact,
a.mib_mar_fin_acu_fact_mto,
l.saldo_acum_lea,
l.saldo_acum_ctg,
l.saldo_acum_hip,
l.saldo_acum_cp,
l.saldo_acum_lp,
l.saldo_acum_comex,
l.col_integrales,
isnull(g.saldop,0),
isnull(g.margen_financiero,0),
isnull(g.saldop,0),
l.saldo_acum_ctas_corrientes_mn,
l.saldo_acum_ctas_corrientes_mx,
l.saldo_acum_otr_vistas_mx,
l.saldo_acum_otr_vistas_mn,
l.saldo_acum_ctas_corrientes_mn+l.saldo_acum_ctas_corrientes_mx+l.saldo_acum_otr_vistas_mx+l.saldo_acum_otr_vistas_mn,
isnull(k.saldop,0),
isnull(k.margen_financiero,0),
isnull(g.saldop,0),
CASE
WHEN a.sow_deuda_sbif_mto > 0 
THEN
CASE
WHEN (isnull(g.saldop,0)/a.sow_deuda_sbif_mto) < 1
THEN (isnull(g.saldop,0)/a.sow_deuda_sbif_mto)
ELSE
1
END
ELSE 0
END
from #carga_wholesale3 a
left join #sdo_mrg_col g
on a.ano_mes = g.ano_mes
and trim(g.cli) = trim(a.cli)
left join #tot_sdo_vista k
on a.ano_mes = k.ano_mes
and trim(k.cli) = trim(a.cli)
left join temporal.arb_clieje_datsum l
on a.ano_mes = l.ano_mes
and a.dec_rut = convert(integer,l.rut_cli)
and l.rut_cli<>''
and l.rut_cli<>'CLI_X'
go

SELECT TOP 1
CASE
WHEN SUBSTRING(CONVERT(CHAR(6),ano_mes),5,2) = '01' 
THEN ano_mes - 89
ELSE ano_mes - 1
END ano_mes_ant
INTO #ano_mes_ant
FROM
#carga_wholesale4
ORDER BY ano_mes_ant DESC
go

SELECT
dec_rut,
sow_factor_pct
into #sow_vigente
FROM
#carga_wholesale4 A,
#ano_mes_ant B
WHERE
A.ano_mes = B.ano_mes_ant
GROUP BY dec_rut,sow_factor_pct
go

create table #carga_wholesale5
(
ano_mes 			 integer,
cli					 char(12),
oficina				 char(5) NULL,
dec_rut 			 integer  NULL,
dec_ejecutivo 		 char(15) NULL,
dec_dv 				 char(1) NULL,
dec_macrobanca 		 char(20) NULL,
dec_plataforma		 char(20) NULL,
dec_segmento		 char(20) NULL,
dec_ventas_anuales_mto	 numeric(18,0) NULL,
dec_ventas_anuales_fec	 integer NULL,
dec_lcg_uf_mto		 numeric(16,4) NULL,
dec_mto_lcg_mto		 numeric(18,0) NULL,
dec_vencimiento_fec  integer NULL,		
dec_antiguedad		 integer NULL,
dec_sow_pct			 numeric(18,4) NULL,
dec_Clasificacion	 char(5) NULL,
dec_nom				 char(50) NULL,		
sow_deuda_sbif_mto	 numeric(12,0) NULL,
poa_factoring_mto	 numeric(12,0) NULL,
mib_mar_fin_acu_fact_mto numeric(12,0) NULL,
poa_leasing_mto		 numeric(12,0) NULL,
poa_contingente_mto	 numeric(12,0) NULL,
poa_hipotecario_mto	 numeric(12,0) NULL,
poa_creditos_cp_mto	 numeric(12,0) NULL,
poa_creditos_lp_mto	 numeric(12,0) NULL,
poa_comex_mto	 	 numeric(12,0) NULL,
poa_tot_col_int_mto	 numeric(12,0) NULL,
coa_col_acumuladas_mto	 numeric(12,0) NULL,
mib_mar_fin_acu_col_mto	 numeric(12,0) NULL,
esc_col_mes_mto		 numeric(12,0) NULL,
poa_cct_mn_mto		 numeric(12,0) NULL,
poa_cct_mx_mto		 numeric(12,0) NULL,
poa_otros_vistas_mx_mto	 numeric(12,0) NULL,
poa_otros_vistas_mn_mto	 numeric(12,0) NULL,
poa_tot_saldo_vistas_mto numeric(12,0) NULL,
esv_saldos_mto	 		 numeric(12,0) NULL,
mib_mar_fin_acu_vis_mto	 numeric(18,0) NULL,
mib_mar_fin_acu_lea_mto	 numeric(18,0) NULL,
mib_com_acu_gan_tot_mto	 numeric(18,0) NULL,
mib_util_mes_acum_mto	 numeric(18,0) NULL,
mib_margen_mto			 numeric(24,0) NULL,
sow_deuda_bci_mto	 numeric(12,0) NULL,
sow_factor_pct	 numeric(12,4) NULL
)
go

select ano_mes,cli,sum(cms) as cms
into #tot_comisiones
from dba.comisiones as a,dba.lineas as b
where a.ano_mes between ${AnoMesIni} and ${AnoMes}
and b.linea_grp3 in( 'CMS_189','CMS_298')
and a.linea = b.linea
group by ano_mes,cli
go

select ano_mes,convert(integer,rut) as rut,sum(valor) as valor
into #col_lea
from bsc.mfi_col_lea 
where ano_mes between ${AnoMesIni} and ${AnoMes}	
group by ano_mes,rut
go

select a.ano_mes,convert(integer,a.rut) as rut1,sum(a.real_util) as real_util
into #mesa_dis_prd_seg
from mesa.msa_dis_prd_seg a
where a.ano_mes between ${AnoMesIni} and ${AnoMes}
and PATINDEX('%[A-Za-z_.-]%',rut) = 0
group by a.ano_mes,rut1
go		

insert into #carga_wholesale5(ano_mes,cli,oficina,dec_rut,dec_ejecutivo,dec_dv,dec_macrobanca,dec_plataforma,dec_segmento,dec_ventas_anuales_mto,dec_ventas_anuales_fec,dec_lcg_uf_mto,
dec_mto_lcg_mto,dec_vencimiento_fec,dec_antiguedad,dec_sow_pct,dec_Clasificacion,dec_nom,sow_deuda_sbif_mto,poa_factoring_mto,mib_mar_fin_acu_fact_mto,poa_leasing_mto,
poa_contingente_mto,poa_hipotecario_mto,poa_creditos_cp_mto,poa_creditos_lp_mto,poa_comex_mto,poa_tot_col_int_mto,coa_col_acumuladas_mto,mib_mar_fin_acu_col_mto,
esc_col_mes_mto,poa_cct_mn_mto,poa_cct_mx_mto,poa_otros_vistas_mx_mto,poa_otros_vistas_mn_mto,poa_tot_saldo_vistas_mto,esv_saldos_mto,mib_mar_fin_acu_vis_mto,
mib_mar_fin_acu_lea_mto,mib_com_acu_gan_tot_mto,mib_util_mes_acum_mto,mib_margen_mto,sow_deuda_bci_mto,sow_factor_pct)
select a.ano_mes,
a.cli,
oficina ,
a.dec_rut,
dec_ejecutivo,
dec_dv,
dec_macrobanca  ,
dec_plataforma ,
dec_segmento ,
dec_ventas_anuales_mto ,
dec_ventas_anuales_fec,
dec_lcg_uf_mto,
dec_mto_lcg_mto ,
dec_vencimiento_fec,
dec_antiguedad,
e.sow_factor_pct,
dec_Clasificacion ,
dec_nom,
sow_deuda_sbif_mto ,
poa_factoring_mto,
mib_mar_fin_acu_fact_mto,
poa_leasing_mto,
poa_contingente_mto ,
poa_hipotecario_mto ,
poa_creditos_cp_mto ,
poa_creditos_lp_mto ,
poa_comex_mto  ,
poa_tot_col_int_mto ,
coa_col_acumuladas_mto ,
mib_mar_fin_acu_col_mto ,
esc_col_mes_mto ,
poa_cct_mn_mto ,
poa_cct_mx_mto ,
poa_otros_vistas_mx_mto ,
poa_otros_vistas_mn_mto ,
poa_tot_saldo_vistas_mto ,
esv_saldos_mto  ,
mib_mar_fin_acu_vis_mto ,
isnull(b.valor,0),
isnull(c.cms,0),
isnull(d.real_util,0),
mib_mar_fin_acu_col_mto+mib_mar_fin_acu_vis_mto+mib_mar_fin_acu_fact_mto+isnull(b.valor,0)+isnull(c.cms,0)+isnull(d.real_util,0),
sow_deuda_bci_mto,
a.sow_factor_pct
from #carga_wholesale4 a
left outer join #col_lea as b
on a.ano_mes = b.ano_mes
and b.rut = a.dec_rut
left outer join #tot_comisiones as c
on a.ano_mes = c.ano_mes
and trim(c.cli) = trim(a.cli)
left outer join #mesa_dis_prd_seg as d
on a.ano_mes = d.ano_mes
and a.dec_rut = d.rut1
LEFT JOIN #sow_vigente e
ON a.dec_rut = e.dec_rut

go

create table #carga_wholesale6
(
ano_mes 			 integer,
cli					 char(12),
oficina				 char(5) NULL,
dec_rut 			 integer  NULL,
dec_ejecutivo 		 char(15) NULL,
dec_dv 				 char(1) NULL,
dec_macrobanca 		 char(20) NULL,
dec_plataforma		 char(20) NULL,
dec_segmento		 char(20) NULL,
dec_ventas_anuales_mto	 numeric(18,0) NULL,
dec_ventas_anuales_fec	 integer NULL,
dec_lcg_uf_mto		 numeric(16,4) NULL,
dec_mto_lcg_mto		 numeric(18,0) NULL,
dec_vencimiento_fec  integer NULL,		
dec_antiguedad		 integer NULL,
dec_sow_pct			 numeric(18,4) NULL,
dec_Clasificacion	 char(5) NULL,
dec_nom				 char(50) NULL,
sow_deuda_sbif_mto	 numeric(12,0) NULL,
poa_factoring_mto	 numeric(12,0) NULL,
mib_mar_fin_acu_fact_mto numeric(12,0) NULL,
poa_leasing_mto		 numeric(12,0) NULL,
poa_contingente_mto	 numeric(12,0) NULL,
poa_hipotecario_mto	 numeric(12,0) NULL,
poa_creditos_cp_mto	 numeric(12,0) NULL,
poa_creditos_lp_mto	 numeric(12,0) NULL,
poa_comex_mto	 	 numeric(12,0) NULL,
poa_tot_col_int_mto	 numeric(12,0) NULL,
coa_col_acumuladas_mto	 numeric(12,0) NULL,
mib_mar_fin_acu_col_mto	 numeric(12,0) NULL,
esc_col_mes_mto		 numeric(12,0) NULL,
poa_cct_mn_mto		 numeric(12,0) NULL,
poa_cct_mx_mto		 numeric(12,0) NULL,
poa_otros_vistas_mx_mto	 numeric(12,0) NULL,
poa_otros_vistas_mn_mto	 numeric(12,0) NULL,
poa_tot_saldo_vistas_mto numeric(12,0) NULL,
esv_saldos_mto	 		 numeric(12,0) NULL,
mib_mar_fin_acu_vis_mto	 numeric(18,0) NULL,
mib_mar_fin_acu_lea_mto	 numeric(18,0) NULL,
mib_com_acu_gan_tot_mto	 numeric(18,0) NULL,
mib_util_mes_acum_mto	 numeric(18,0) NULL,
mib_margen_mto			 numeric(24,0) NULL,
eva_comercial_cont_mto	 numeric(16,4) NULL,
eva_comercial_efe_mto	 numeric(16,4) NULL,
eva_factoring_cont_mto	 numeric(16,4) NULL,
eva_factoring_efe_mto	 numeric(16,4) NULL,
eva_lea_contingente_mto	 numeric(16,4) NULL,
eva_lea_efectiva_mto	 numeric(16,4) NULL,
eva_miami_contingente_mto	numeric(16,4) NULL,
eva_miami_efectiva_mto	 numeric(16,4) NULL,
eva_eva_mto				 numeric(16,4) NULL,
eva_margen_bruto_bci_mto	numeric(16,4) NULL,
eva_margen_bruto_fil_mto	numeric(16,4) NULL,
eva_costo_bci_mto		 numeric(16,4) NULL,
eva_costo_fil_mto	 	 numeric(16,4) NULL,
eva_riesgo_total_pct	 numeric(16,4) NULL,
eva_capital_total_mto	 numeric(16,4) NULL,
sow_deuda_bci_mto	 numeric(12,0) NULL,
sow_factor_pct	 numeric(12,4) NULL
)
go	

-- print 'Genera tabla tmp de Ponderador'
select rut,
fec_prd as ano_mes,
pe_com_ctg,
pe_com_efe,
pe_fac_ctg,
pe_fac_efe,
pe_lea_ctg,
pe_lea_efe,
pe_mia_ctg,
pe_mia_efe,
eva_periodo,
margen_bruto_bci,
margen_bruto_fil,
gasto_total_bci,
gasto_total_fil,
pe_total_cliente,
capital_total
into #ponderador
from qwrtb.vw_raroc_cliente_2 a
,#bca b
where trim(a.id_banca_agrp_ofi) = trim(b.bca)
and id_periodo between ${AnoMesIni} and ${AnoMes}
go


insert into #carga_wholesale6(ano_mes,cli,oficina,dec_rut,dec_ejecutivo,dec_dv,dec_macrobanca,dec_plataforma,dec_segmento,dec_ventas_anuales_mto,dec_ventas_anuales_fec,dec_lcg_uf_mto,
dec_mto_lcg_mto,dec_vencimiento_fec,dec_antiguedad,dec_sow_pct,dec_Clasificacion,dec_nom,sow_deuda_sbif_mto,poa_factoring_mto,mib_mar_fin_acu_fact_mto,poa_leasing_mto,
poa_contingente_mto,poa_hipotecario_mto,poa_creditos_cp_mto,poa_creditos_lp_mto,poa_comex_mto,poa_tot_col_int_mto,coa_col_acumuladas_mto,mib_mar_fin_acu_col_mto,
esc_col_mes_mto,poa_cct_mn_mto,poa_cct_mx_mto,poa_otros_vistas_mx_mto,poa_otros_vistas_mn_mto,poa_tot_saldo_vistas_mto,esv_saldos_mto,mib_mar_fin_acu_vis_mto,
mib_mar_fin_acu_lea_mto,mib_com_acu_gan_tot_mto,mib_util_mes_acum_mto,mib_margen_mto,eva_comercial_cont_mto,eva_comercial_efe_mto,eva_factoring_cont_mto,
eva_factoring_efe_mto,eva_lea_contingente_mto,eva_lea_efectiva_mto,eva_miami_contingente_mto,eva_miami_efectiva_mto,eva_eva_mto,eva_margen_bruto_bci_mto,
eva_margen_bruto_fil_mto,eva_costo_bci_mto,eva_costo_fil_mto,eva_riesgo_total_pct,eva_capital_total_mto,sow_deuda_bci_mto,sow_factor_pct)
SELECT a.ano_mes,
cli,
oficina,
dec_rut,
dec_ejecutivo,
dec_dv,
dec_macrobanca,
dec_plataforma,
dec_segmento,
dec_ventas_anuales_mto,
dec_ventas_anuales_fec,
dec_lcg_uf_mto,
dec_mto_lcg_mto,
dec_vencimiento_fec,		
dec_antiguedad,
dec_sow_pct,
dec_Clasificacion,
dec_nom,
sow_deuda_sbif_mto,
poa_factoring_mto,
mib_mar_fin_acu_fact_mto,
poa_leasing_mto,
poa_contingente_mto,
poa_hipotecario_mto,
poa_creditos_cp_mto,
poa_creditos_lp_mto,
poa_comex_mto,
poa_tot_col_int_mto,
coa_col_acumuladas_mto,
mib_mar_fin_acu_col_mto,
esc_col_mes_mto,
poa_cct_mn_mto,
poa_cct_mx_mto,
poa_otros_vistas_mx_mto,
poa_otros_vistas_mn_mto,
poa_tot_saldo_vistas_mto,
esv_saldos_mto,
mib_mar_fin_acu_vis_mto,
mib_mar_fin_acu_lea_mto,
mib_com_acu_gan_tot_mto,
mib_util_mes_acum_mto,
mib_margen_mto,
b.pe_com_ctg,
b.pe_com_efe,
b.pe_fac_ctg,
b.pe_fac_efe,
b.pe_lea_ctg,
b.pe_lea_efe,
b.pe_mia_ctg,
b.pe_mia_efe,
b.eva_periodo,
b.margen_bruto_bci,
b.margen_bruto_fil,
b.gasto_total_bci,
b.gasto_total_fil,
b.pe_total_cliente,
b.capital_total,
sow_deuda_bci_mto,
sow_factor_pct
from #carga_wholesale5 a
LEFT OUTER JOIN #ponderador as b
on b.rut = a.dec_rut
and b.ano_mes = a.ano_mes
go

create table #carga_wholesale7
(
ano_mes 			 integer,
cli					 char(12),
oficina				 char(5) NULL,
dec_rut 			 integer  NULL,
dec_ejecutivo 		 char(15) NULL,
dec_dv 				 char(1) NULL,
dec_macrobanca 		 char(20) NULL,
dec_plataforma		 char(20) NULL,
dec_segmento		 char(20) NULL,
dec_ventas_anuales_mto	 numeric(18,0) NULL,
dec_ventas_anuales_fec	 integer NULL,
dec_lcg_uf_mto		 numeric(16,4) NULL,
dec_mto_lcg_mto		 numeric(18,0) NULL,
dec_vencimiento_fec  integer NULL,		
dec_antiguedad		 integer NULL,
dec_sow_pct			 numeric(18,4) NULL,
dec_Clasificacion	 char(5) NULL,
dec_nom				 char(50) NULL,
sow_deuda_sbif_mto	 numeric(12,0) NULL,
poa_factoring_mto	 numeric(12,0) NULL,
mib_mar_fin_acu_fact_mto numeric(12,0) NULL,
poa_leasing_mto		 numeric(12,0) NULL,
poa_contingente_mto	 numeric(12,0) NULL,
poa_hipotecario_mto	 numeric(12,0) NULL,
poa_creditos_cp_mto	 numeric(12,0) NULL,
poa_creditos_lp_mto	 numeric(12,0) NULL,
poa_comex_mto	 	 numeric(12,0) NULL,
poa_tot_col_int_mto	 numeric(12,0) NULL,
coa_col_acumuladas_mto	 numeric(12,0) NULL,
mib_mar_fin_acu_col_mto	 numeric(12,0) NULL,
esc_col_mes_mto		 numeric(12,0) NULL,
poa_cct_mn_mto		 numeric(12,0) NULL,
poa_cct_mx_mto		 numeric(12,0) NULL,
poa_otros_vistas_mx_mto	 numeric(12,0) NULL,
poa_otros_vistas_mn_mto	 numeric(12,0) NULL,
poa_tot_saldo_vistas_mto numeric(12,0) NULL,
esv_saldos_mto	 		 numeric(12,0) NULL,
mib_mar_fin_acu_vis_mto	 numeric(18,0) NULL,
mib_mar_fin_acu_lea_mto	 numeric(18,0) NULL,
mib_com_acu_gan_tot_mto	 numeric(18,0) NULL,
mib_util_mes_acum_mto	 numeric(18,0) NULL,
mib_margen_mto			 numeric(24,0) NULL,
eva_comercial_cont_mto	 numeric(16,4) NULL,
eva_comercial_efe_mto	 numeric(16,4) NULL,
eva_factoring_cont_mto	 numeric(16,4) NULL,
eva_factoring_efe_mto	 numeric(16,4) NULL,
eva_lea_contingente_mto	 numeric(16,4) NULL,
eva_lea_efectiva_mto	 numeric(16,4) NULL,
eva_miami_contingente_mto	numeric(16,4) NULL,
eva_miami_efectiva_mto	 numeric(16,4) NULL,
eva_eva_mto				 numeric(16,4) NULL,
eva_margen_bruto_bci_mto	numeric(16,4) NULL,
eva_margen_bruto_fil_mto	numeric(16,4) NULL,
eva_costo_bci_mto		 numeric(16,4) NULL,
eva_costo_fil_mto	 	 numeric(16,4) NULL,
eva_riesgo_total_pct	 numeric(16,4) NULL,
eva_capital_total_mto	 numeric(16,4) NULL,
cru_spot_mx_ind			 integer NULL,
cru_forward_ind			 integer NULL,
cru_derivados_ind		 integer NULL,
sow_deuda_bci_mto	 numeric(12,0) NULL,
sow_factor_pct	 numeric(12,4) NULL
)
go
select distinct rut,
ano_mes,
case when sub_prod='SPOT' then 1 else 0 end as spot,
case when sub_prod='FWD' then 1 else 0 end as fwd,
case when sub_prod='DER OTROS' then 1 else 0 end as der
into #prod_mesa		
from MESA.msa_dis_prd_seg
where (sub_prod in ('FWD','DER OTROS') or (sub_prod ='SPOT'AND mon='US$'))
and ano_mes between ${AnoMesIni} and ${AnoMes}
and PATINDEX('%[A-Za-z_.-]%',rut) = 0
go

-- print 'Extrae datos de la mesa'
select convert(integer,rut) as rut,
ano_mes,
CASE WHEN sum(spot) >= 1 THEN 1 ELSE 0 end as spot,
CASE WHEN sum(fwd) >= 1 THEN 1 ELSE 0 end as fwd,
CASE WHEN sum(der) >= 1 THEN 1 ELSE 0 end as der
into #prod_mesa1
from #prod_mesa
group by rut,ano_mes
go

insert into #carga_wholesale7(ano_mes,cli,oficina,dec_rut,dec_ejecutivo,dec_dv,dec_macrobanca,dec_plataforma,dec_segmento,dec_ventas_anuales_mto,dec_ventas_anuales_fec,dec_lcg_uf_mto,
dec_mto_lcg_mto,dec_vencimiento_fec,dec_antiguedad,dec_sow_pct,dec_Clasificacion,dec_nom,sow_deuda_sbif_mto,poa_factoring_mto,mib_mar_fin_acu_fact_mto,poa_leasing_mto,
poa_contingente_mto,poa_hipotecario_mto,poa_creditos_cp_mto,poa_creditos_lp_mto,poa_comex_mto,poa_tot_col_int_mto,coa_col_acumuladas_mto,mib_mar_fin_acu_col_mto,
esc_col_mes_mto,poa_cct_mn_mto,poa_cct_mx_mto,poa_otros_vistas_mx_mto,poa_otros_vistas_mn_mto,poa_tot_saldo_vistas_mto,esv_saldos_mto,mib_mar_fin_acu_vis_mto,
mib_mar_fin_acu_lea_mto,mib_com_acu_gan_tot_mto,mib_util_mes_acum_mto,mib_margen_mto,eva_comercial_cont_mto,eva_comercial_efe_mto,eva_factoring_cont_mto,
eva_factoring_efe_mto,eva_lea_contingente_mto,eva_lea_efectiva_mto,eva_miami_contingente_mto,eva_miami_efectiva_mto,eva_eva_mto,eva_margen_bruto_bci_mto,
eva_margen_bruto_fil_mto,eva_costo_bci_mto,eva_costo_fil_mto,eva_riesgo_total_pct,eva_capital_total_mto,cru_spot_mx_ind,cru_forward_ind,cru_derivados_ind,sow_deuda_bci_mto,sow_factor_pct)
SELECT a.ano_mes,
cli,
oficina,
dec_rut,
dec_ejecutivo,
dec_dv,
dec_macrobanca,
dec_plataforma,
dec_segmento,
dec_ventas_anuales_mto,
dec_ventas_anuales_fec,
dec_lcg_uf_mto,
dec_mto_lcg_mto,
dec_vencimiento_fec,		
dec_antiguedad,
dec_sow_pct,
dec_Clasificacion,
dec_nom,
sow_deuda_sbif_mto,
poa_factoring_mto,
mib_mar_fin_acu_fact_mto,
poa_leasing_mto,
poa_contingente_mto,
poa_hipotecario_mto,
poa_creditos_cp_mto,
poa_creditos_lp_mto,
poa_comex_mto,
poa_tot_col_int_mto,
coa_col_acumuladas_mto,
mib_mar_fin_acu_col_mto,
esc_col_mes_mto,
poa_cct_mn_mto,
poa_cct_mx_mto,
poa_otros_vistas_mx_mto,
poa_otros_vistas_mn_mto,
poa_tot_saldo_vistas_mto,
esv_saldos_mto,
mib_mar_fin_acu_vis_mto,
mib_mar_fin_acu_lea_mto,
mib_com_acu_gan_tot_mto,
mib_util_mes_acum_mto,
mib_margen_mto,
eva_comercial_cont_mto,
eva_comercial_efe_mto,
eva_factoring_cont_mto,
eva_factoring_efe_mto,
eva_lea_contingente_mto,
eva_lea_efectiva_mto,
eva_miami_contingente_mto,
eva_miami_efectiva_mto,
eva_eva_mto,
eva_margen_bruto_bci_mto,
eva_margen_bruto_fil_mto,
eva_costo_bci_mto,
eva_costo_fil_mto,
eva_riesgo_total_pct,
eva_capital_total_mto,
isnull(spot,0),
isnull(fwd,0),
isnull(der,0),
sow_deuda_bci_mto,
sow_factor_pct
from #carga_wholesale6 a
left outer join #prod_mesa1 b
on b.rut = a.dec_rut
and b.ano_mes = a.ano_mes	

go

insert into #carga_wholesale(ano_mes,cli,oficina,dec_rut,dec_ejecutivo,dec_dv,dec_macrobanca,dec_plataforma,dec_segmento,dec_ventas_anuales_mto,dec_ventas_anuales_fec,dec_lcg_uf_mto,
dec_mto_lcg_mto,dec_vencimiento_fec,dec_antiguedad,dec_sow_pct,dec_Clasificacion,dec_nom,sow_deuda_sbif_mto,poa_factoring_mto,mib_mar_fin_acu_fact_mto,poa_leasing_mto,
poa_contingente_mto,poa_hipotecario_mto,poa_creditos_cp_mto,poa_creditos_lp_mto,poa_comex_mto,poa_tot_col_int_mto,coa_col_acumuladas_mto,mib_mar_fin_acu_col_mto,
esc_col_mes_mto,poa_cct_mn_mto,poa_cct_mx_mto,poa_otros_vistas_mx_mto,poa_otros_vistas_mn_mto,poa_tot_saldo_vistas_mto,esv_saldos_mto,mib_mar_fin_acu_vis_mto,
mib_mar_fin_acu_lea_mto,mib_com_acu_gan_tot_mto,mib_util_mes_acum_mto,mib_margen_mto,eva_comercial_cont_mto,eva_comercial_efe_mto,eva_factoring_cont_mto,
eva_factoring_efe_mto,eva_lea_contingente_mto,eva_lea_efectiva_mto,eva_miami_contingente_mto,eva_miami_efectiva_mto,eva_eva_mto,eva_margen_bruto_bci_mto,
eva_margen_bruto_fil_mto,eva_costo_bci_mto,eva_costo_fil_mto,eva_riesgo_total_pct,eva_capital_total_mto,cru_spot_mx_ind,cru_forward_ind,cru_derivados_ind,sow_deuda_bci_mto,sow_factor_pct)
SELECT ano_mes,
cli,
oficina,
dec_rut,
dec_ejecutivo,
dec_dv,
dec_macrobanca,
dec_plataforma,
dec_segmento,
sum(dec_ventas_anuales_mto),
CASE WHEN dec_ventas_anuales_fec = 0 OR dec_ventas_anuales_fec IS NULL THEN 19000101 ELSE dec_ventas_anuales_fec END,
sum(dec_lcg_uf_mto),
sum(dec_mto_lcg_mto),
CASE WHEN dec_vencimiento_fec = 0 OR dec_vencimiento_fec IS NULL THEN 19000101 ELSE dec_vencimiento_fec END,		
CASE WHEN dec_antiguedad = 0 OR dec_antiguedad IS NULL THEN 19000101 ELSE dec_antiguedad END,
dec_sow_pct,
dec_Clasificacion,
dec_nom,
sum(sow_deuda_sbif_mto),
sum(poa_factoring_mto),
sum(mib_mar_fin_acu_fact_mto),
sum(poa_leasing_mto),
sum(poa_contingente_mto),
sum(poa_hipotecario_mto),
sum(poa_creditos_cp_mto),
sum(poa_creditos_lp_mto),
sum(poa_comex_mto),
sum(poa_tot_col_int_mto),
sum(coa_col_acumuladas_mto),
sum(mib_mar_fin_acu_col_mto),
sum(esc_col_mes_mto),
sum(poa_cct_mn_mto),
sum(poa_cct_mx_mto),
sum(poa_otros_vistas_mx_mto),
sum(poa_otros_vistas_mn_mto),
sum(poa_tot_saldo_vistas_mto),
sum(esv_saldos_mto),
sum(mib_mar_fin_acu_vis_mto),
sum(mib_mar_fin_acu_lea_mto),
sum(mib_com_acu_gan_tot_mto),
sum(mib_util_mes_acum_mto),
sum(mib_margen_mto),
sum(eva_comercial_cont_mto),
sum(eva_comercial_efe_mto),
sum(eva_factoring_cont_mto),
sum(eva_factoring_efe_mto),
sum(eva_lea_contingente_mto),
sum(eva_lea_efectiva_mto),
sum(eva_miami_contingente_mto),
sum(eva_miami_efectiva_mto),
sum(eva_eva_mto),
sum(eva_margen_bruto_bci_mto),
sum(eva_margen_bruto_fil_mto),
sum(eva_costo_bci_mto),
sum(eva_costo_fil_mto),
sum(eva_riesgo_total_pct),
sum(eva_capital_total_mto),
cru_spot_mx_ind,
cru_forward_ind,
cru_derivados_ind,
sow_deuda_bci_mto,
sow_factor_pct
from #carga_wholesale7 a	
group by ano_mes,cli,oficina,dec_rut,dec_ejecutivo,dec_dv,dec_macrobanca,dec_plataforma,dec_segmento,dec_ventas_anuales_fec,dec_vencimiento_fec,dec_antiguedad,dec_Clasificacion,dec_nom,cru_spot_mx_ind,cru_forward_ind,cru_derivados_ind,sow_deuda_bci_mto,sow_factor_pct,dec_sow_pct
go
--Obtiene indicadores CP, LP, Comex, Hip, Cont, Fact
SELECT
'universo_clientes|'
+convert(char(8),dec_rut)
+'|'+dec_dv
+'|'+convert(char(1),cru_spot_mx_ind)
+'|'+convert(char(1),cru_forward_ind)
+'|'+convert(char(1),cru_derivados_ind)
+'|'+CASE WHEN poa_creditos_cp_mto > 0 THEN '1' ELSE '0' END
+'|'+CASE WHEN poa_creditos_lp_mto > 0 THEN '1' ELSE '0' END
+'|'+CASE WHEN poa_comex_mto > 0 THEN '1' ELSE '0' END
+'|'+CASE WHEN poa_hipotecario_mto > 0 THEN '1' ELSE '0' END
+'|'+CASE WHEN poa_contingente_mto > 0 THEN '1' ELSE '0' END
+'|'+CASE WHEN poa_factoring_mto > 0 THEN '1' ELSE '0' END
FROM
#carga_wholesale
WHERE
ano_mes = (SELECT MAX(ano_mes) FROM #carga_wholesale)
go
select 	'dec_detalle_cliente|'+convert(char(8),dec_rut)+'|'+convert(char(6),ano_mes)+'01|'+dec_dv+'|'+dec_ejecutivo+'|'+dec_macrobanca+'|'+dec_plataforma+'|'+convert(char(12),dec_ventas_anuales_mto)+'|'+convert(char(8),dec_ventas_anuales_fec)+'|'+
convert(char(17),dec_lcg_uf_mto)+'|'+convert(char(18),dec_mto_lcg_mto)+'|'+convert(char(8),dec_vencimiento_fec)+'|'+convert(char(8),dec_antiguedad)+'|'+convert(char(10),dec_sow_pct)+'|'+
dec_segmento+'|'+dec_Clasificacion+'|'+dec_nom
from #carga_wholesale
go

select 'mib_margen_bruto_integral|'+convert(char(8),dec_rut)+'|'+convert(char(6),ano_mes)+'01|'+convert(char(18),mib_mar_fin_acu_col_mto)+'|'+convert(char(18),mib_mar_fin_acu_vis_mto)+'|'+convert(char(18),mib_mar_fin_acu_fact_mto)+'|'+
convert(char(18),mib_mar_fin_acu_lea_mto)+'|'+convert(char(18),mib_com_acu_gan_tot_mto)+'|'+convert(char(18),mib_util_mes_acum_mto)+'|'+convert(char(18),mib_margen_mto)
from #carga_wholesale
go

select 'eva_val_eco_agregado|'+convert(char(8),dec_rut)+'|'+convert(char(6),ano_mes)+'01|'+convert(char(18),eva_comercial_cont_mto)+'|'+convert(char(18),eva_comercial_efe_mto)+'|'+convert(char(18),eva_factoring_cont_mto)+'|'+
convert(char(18),eva_factoring_efe_mto)+'|'+convert(char(18),eva_lea_contingente_mto)+'|'+convert(char(18),eva_lea_efectiva_mto)+'|'+convert(char(18),eva_miami_contingente_mto)+'|'+
convert(char(18),eva_miami_efectiva_mto)+'|'+convert(char(18),eva_eva_mto)+'|'+convert(char(18),eva_margen_bruto_bci_mto)+'|'+convert(char(18),eva_margen_bruto_fil_mto)+'|'+convert(char(18),eva_costo_bci_mto)+'|'+
convert(char(18),eva_costo_fil_mto)+'|'+convert(char(18),eva_riesgo_total_pct)+'|'+convert(char(18),eva_capital_total_mto)
from #carga_wholesale
go

select 'esv_evolucion_saldos_vista|'+convert(char(8),dec_rut)+'|'+convert(char(6),ano_mes)+'01|'+convert(char(18),esv_saldos_mto)
from #carga_wholesale
go

select 'esc_evolucion_saldo_col|'+convert(char(8),dec_rut)+'|'+convert(char(6),ano_mes)+'01|'+convert(char(18),esc_col_mes_mto)
from #carga_wholesale
go

select 'sow_evolucion_sow|'+convert(char(8),dec_rut)+'|'+convert(char(6),ano_mes)+'01|'+convert(char(18),sow_deuda_bci_mto)+'|'+convert(char(18),sow_deuda_sbif_mto)+'|'+convert(char(18),sow_factor_pct)
from #carga_wholesale


--DROP de tablas
drop table #carga_wholesale
go
drop table #carga_wholesale1
go
drop table #carga_wholesale2
go
drop table #carga_wholesale3
go
drop table #carga_wholesale4
go
drop table #carga_wholesale5
go
drop table #carga_wholesale6
go
drop table #carga_wholesale7
go
drop table #mrg_fact
go
drop table #sdo_mrg_col
go
drop table #tot_sdo_vista
go
drop table #tot_comisiones
go
drop table #col_lea
go
drop table #mesa_dis_prd_seg
go
drop table #ponderador
go
drop table #prod_mesa
go
drop table #prod_mesa1
go
drop table #carga_wholesale1
go
drop table #deuda_sbif_tmp
go
drop table #ano_mes_ant
go
DROP TABLE #sow_vigente
go
drop table #fecCliEje
go

EOF
	
	rc=$?
	
	if [ $rc -ne 0 ]
	then
		Mensaje "ERROR en Ejecucion BWS_Extract_Data - Status final: $rc"
		Mensaje ""
		printlog "ERROR en Ejecucion BWS_Extract_Data- Status final: $rc"
		printlog ""
		exit 11
	else
		Mensaje "OK en Ejecucion BWS_Extract_Data - Status final: $rc"
		Mensaje ""
		printlog "OK en Ejecucion BWS_Extract_Data - Status final: $rc"
		printlog ""
	fi
}

Ejecuta_Consulta_BWS_Extract_Coa()
{
MesAcum=$1

	Mensaje "Comienza Ejecucion de BWS_Extract_Coa ${AnoMes}"
	printlog "Comienza Ejecucion de BWS_Extract_Coa ${AnoMes}"
	echo "EJECUCION de BWS_Extract_Coa ${AnoMes}" >> $DirLog/$ARCHLOG
		
isql -w2000 -S$ServerIQ -U$SYB_U <<EOF >> $DirLog/$ARCHLOG 2>&1
`echo ${SYB_P}`

select max(ano_mes) as fec_clieje
into #fecCliEje
from temporal.arb_clieje_datsum
go

select distinct trim(bca) as bca, macro_banca as desc_bca
into #bca
from temporal.arb_clieje_datsum
where ano_mes=(select fec_clieje from #fecCliEje)
and trim(bca) in (${BANCAS})
go

drop table #uni_cli
go
Select a.ano_mes,
trim(cliente) as cliente,
trim(a.rut) as rut,
trim(a.vr) as vr
into #uni_cli
from dba.cli_awk as a
join #bca b
on trim(a.banca) = b.bca
where a.ano_mes = ${AnoMes}
and a.ind_rut = ''
and a.ext_rut = ''
and a.rut<>'CLI_X'
go

drop table #sdo_mrg_col_acum1
go
select 
a.ano_mes
,trim(a.cli) as cli
,sum(isnull(saldop,0)) as saldop
into #sdo_mrg_col_acum1
from 
dba.margen as a
,dba.lineas as b
,#uni_cli c
where
a.linea = b.linea
and trim(a.cli) = c.cliente
and a.ano_mes between ${Ano}01 and ${AnoMes}
and b.linea_grp1 = '69U'
and b.linea_grp2 in( 'ACT','PSV')
and b.linea_grp3 = 'COL'
group by a.ano_mes,a.cli
go

drop table #sdo_mrg_col_acum2
go
create table #sdo_mrg_col_acum2(
ano_mes char(8)
,cli varchar(50)
,SDO decimal(18,2)
)
go
INSERT INTO #sdo_mrg_col_acum2
select
'${AnoMes}01' as ano_mes
,a.cli
,sum(isnull(saldop,0))/${MesAcum} AS SDO
from 
#sdo_mrg_col_acum1 a
where
SUBSTRING('${AnoMes}',1,4) = SUBSTRING(CONVERT(CHAR(6),a.ano_mes),1,4)
group by a.cli
go

SELECT
'coa_colocaciones_acum'
+'|'+convert(char(8),B.rut)
+'|'+convert(char(8),A.ano_mes)
+'|'+substring(convert(char(18),A.SDO),1,charindex('.',convert(char(18),A.SDO))-1)
FROM
#sdo_mrg_col_acum2 A
,#uni_cli B
WHERE
A.cli = B.cliente
go

-- logica para obtener poa
DROP TABLE #poa_posicion_actual
go

create table #poa_posicion_actual
(
ano_mes 			 integer,
cli					 char(12),
dec_rut 			 VARCHAR(20)  NULL,
dec_dv 				 char(1) NULL,
poa_factoring_mto 	 numeric(18,0) NULL,
poa_contingente_mto	 numeric(18,0) NULL,
poa_hipotecario_mto	 numeric(18,0) NULL,
poa_leasing_mto		 numeric(18,0) NULL,
poa_creditos_lp_mto	 numeric(18,0) NULL,
poa_creditos_cp_mto	 numeric(18,0) NULL,
poa_comex_mto		 numeric(18,0) NULL,
poa_tot_col_int_mto	 numeric(18,0) NULL,
poa_cct_mn_mto		 numeric(18,0) NULL,
poa_cct_mx_mto		 numeric(18,0) NULL,
poa_otros_vistas_mn_mto  numeric(18,0) NULL,
poa_otros_vistas_mx_mto  numeric(18,0) NULL,
poa_tot_saldo_vistas_mto  numeric(18,0) NULL,
)
go

INSERT INTO #poa_posicion_actual
SELECT
	ano_mes
	,cliente
	,rut
	,vr
	,0
	,0
	,0
	,0
	,0
	,0
	,0
	,0
	,0
	,0
	,0
	,0
	,0
FROM
	#uni_cli
go

-- obtencion de saldo_acum_ctg
select 
a.ano_mes
,trim(a.cli) as cli
,sum(isnull(saldop,0)) as saldop
into #saldo_acum_ctg1
from 
dba.margen as a
,dba.lineas as b
,#uni_cli c
where
a.linea = b.linea
and trim(a.cli) = c.cliente
and a.ano_mes between ${Ano}01 and ${AnoMes}
and b.linea_grp3 = 'COL'
and b.linea_grp4 = 'CTG'
group by a.ano_mes,a.cli
go

drop table #saldo_acum_ctg2
go

create table #saldo_acum_ctg2(
ano_mes char(8)
,cli varchar(50)
,saldo_acum_ctg decimal(18,2)
)
go

INSERT INTO #saldo_acum_ctg2
select
'${AnoMes}01' as ano_mes
,a.cli
,sum(isnull(saldop,0))/${MesAcum} AS saldo_acum_ctg
from 
#saldo_acum_ctg1 a
where
SUBSTRING('${AnoMes}',1,4) = SUBSTRING(CONVERT(CHAR(6),a.ano_mes),1,4)
group by a.cli
go

update #poa_posicion_actual
set poa_contingente_mto = saldo_acum_ctg
from #poa_posicion_actual A, #saldo_acum_ctg2 B
where
trim(A.cli) = trim(B.cli)
go

-- obtencion de saldo_acum_hip
select 
a.ano_mes
,trim(a.cli) as cli
,sum(isnull(saldop,0)) as saldop
into #saldo_acum_hip1
from 
dba.margen as a
,dba.lineas as b
,#uni_cli c
where
a.linea = b.linea
and trim(a.cli) = c.cliente
and a.ano_mes between ${Ano}01 and ${AnoMes}
and b.linea_grp3 = 'COL'
and b.linea_grp4 = 'HIP'
group by a.ano_mes,a.cli
go

drop table #saldo_acum_hip2
go

create table #saldo_acum_hip2(
ano_mes char(8)
,cli varchar(50)
,saldo_acum_hip decimal(18,2)
)
go

INSERT INTO #saldo_acum_hip2
select
'${AnoMes}01' as ano_mes
,a.cli
,sum(isnull(saldop,0))/${MesAcum} AS saldo_acum_hip
from 
#saldo_acum_hip1 a
where
SUBSTRING('${AnoMes}',1,4) = SUBSTRING(CONVERT(CHAR(6),a.ano_mes),1,4)
group by a.cli
go

update #poa_posicion_actual
set poa_hipotecario_mto = saldo_acum_hip
from #poa_posicion_actual A, #saldo_acum_hip2 B
where
trim(A.cli) = trim(B.cli)
go

-- obtencion de saldo_acum_cp
select 
a.ano_mes
,trim(a.cli) as cli
,sum(isnull(saldop,0)) as saldop
into #saldo_acum_cp1
from 
dba.margen as a
,dba.lineas as b
,#uni_cli c
where
a.linea = b.linea
and trim(a.cli) = c.cliente
and a.ano_mes between ${Ano}01 and ${AnoMes}
and b.linea_grp3 = 'COL'
and b.linea_grp4 = 'COM'
and b.linea_grp5 = 'CP'
group by a.ano_mes,a.cli
go

drop table #saldo_acum_cp2
go

create table #saldo_acum_cp2(
ano_mes char(8)
,cli varchar(50)
,saldo_acum_cp decimal(18,2)
)
go

INSERT INTO #saldo_acum_cp2
select
'${AnoMes}01' as ano_mes
,a.cli
,sum(isnull(saldop,0))/${MesAcum} AS saldo_acum_cp
from 
#saldo_acum_cp1 a
where
SUBSTRING('${AnoMes}',1,4) = SUBSTRING(CONVERT(CHAR(6),a.ano_mes),1,4)
group by a.cli
go

update #poa_posicion_actual
set poa_creditos_cp_mto = saldo_acum_cp
from #poa_posicion_actual A, #saldo_acum_cp2 B
where
trim(A.cli) = trim(B.cli)
go

-- obtencion de saldo_acum_lp
select 
a.ano_mes
,trim(a.cli) as cli
,sum(isnull(saldop,0)) as saldop
into #saldo_acum_lp1
from 
dba.margen as a
,dba.lineas as b
,#uni_cli c
where
a.linea = b.linea
and trim(a.cli) = c.cliente
and a.ano_mes between ${Ano}01 and ${AnoMes}
and b.linea_grp3 = 'COL'
and b.linea_grp4 = 'COM'
and b.linea_grp5 = 'LP'
group by a.ano_mes,a.cli
go

drop table #saldo_acum_lp2
go

create table #saldo_acum_lp2(
ano_mes char(8)
,cli varchar(50)
,saldo_acum_lp decimal(18,2)
)
go

INSERT INTO #saldo_acum_lp2
select
'${AnoMes}01' as ano_mes
,a.cli
,sum(isnull(saldop,0))/${MesAcum} AS saldo_acum_lp
from 
#saldo_acum_lp1 a
where
SUBSTRING('${AnoMes}',1,4) = SUBSTRING(CONVERT(CHAR(6),a.ano_mes),1,4)
group by a.cli
go

update #poa_posicion_actual
set poa_creditos_lp_mto = saldo_acum_lp
from #poa_posicion_actual A, #saldo_acum_lp2 B
where
trim(A.cli) = trim(B.cli)
go

-- obtencion de saldo_acum_comex
select 
a.ano_mes
,trim(a.cli) as cli
,sum(isnull(saldop,0)) as saldop
into #saldo_acum_comex1
from 
dba.margen as a
,dba.lineas as b
,#uni_cli c
where
a.linea = b.linea
and trim(a.cli) = c.cliente
and a.ano_mes between ${Ano}01 and ${AnoMes}
and b.linea_grp3 = 'COL'
and b.linea_grp4 = 'COMEX'
group by a.ano_mes,a.cli
go

drop table #saldo_acum_comex2
go

create table #saldo_acum_comex2(
ano_mes char(8)
,cli varchar(50)
,saldo_acum_comex decimal(18,2)
)
go

INSERT INTO #saldo_acum_comex2
select
'${AnoMes}01' as ano_mes
,a.cli
,sum(isnull(saldop,0))/${MesAcum} AS saldo_acum_comex
from 
#saldo_acum_comex1 a
where
SUBSTRING('${AnoMes}',1,4) = SUBSTRING(CONVERT(CHAR(6),a.ano_mes),1,4)
group by a.cli
go

update #poa_posicion_actual
set poa_comex_mto = saldo_acum_comex
from #poa_posicion_actual A, #saldo_acum_comex2 B
where
trim(A.cli) = trim(B.cli)
go

-- obtencion de saldo_acum_ctas_corrientes_mn
select 
a.ano_mes
,trim(a.cli) as cli
,sum(isnull(saldop,0)) as saldop
into #saldo_acum_ctas_corrientes_mn1
from 
dba.margen as a
,dba.lineas as b
,#uni_cli c
where
a.linea = b.linea
and trim(a.cli) = c.cliente
and a.ano_mes between ${Ano}01 and ${AnoMes}
and b.linea_grp3 = 'DVN'
and b.linea_grp4 = 'CCT'
and b.linea_grp5 = 'CCT_MN'
group by a.ano_mes,a.cli
go

drop table #saldo_acum_ctas_corrientes_mn2
go

create table #saldo_acum_ctas_corrientes_mn2(
ano_mes char(8)
,cli varchar(50)
,saldo_acum_ctas_corrientes_mn decimal(18,2)
)
go

INSERT INTO #saldo_acum_ctas_corrientes_mn2
select
'${AnoMes}01' as ano_mes
,a.cli
,sum(isnull(saldop,0))/${MesAcum} AS saldo_acum_ctas_corrientes_mn
from 
#saldo_acum_ctas_corrientes_mn1 a
where
SUBSTRING('${AnoMes}',1,4) = SUBSTRING(CONVERT(CHAR(6),a.ano_mes),1,4)
group by a.cli
go

update #poa_posicion_actual
set poa_cct_mn_mto = saldo_acum_ctas_corrientes_mn
from #poa_posicion_actual A, #saldo_acum_ctas_corrientes_mn2 B
where
trim(A.cli) = trim(B.cli)
go

-- obtencion de saldo_acum_ctas_corrientes_mx
select 
a.ano_mes
,trim(a.cli) as cli
,sum(isnull(saldop,0)) as saldop
into #saldo_acum_ctas_corrientes_mx1
from 
dba.margen as a
,dba.lineas as b
,#uni_cli c
where
a.linea = b.linea
and trim(a.cli) = c.cliente
and a.ano_mes between ${Ano}01 and ${AnoMes}
and b.linea_grp3 = 'DVN'
and b.linea_grp4 = 'CCT'
and b.linea_grp5 = 'CCT_MX'
group by a.ano_mes,a.cli
go

drop table #saldo_acum_ctas_corrientes_mx2
go

create table #saldo_acum_ctas_corrientes_mx2(
ano_mes char(8)
,cli varchar(50)
,saldo_acum_ctas_corrientes_mx decimal(18,2)
)
go

INSERT INTO #saldo_acum_ctas_corrientes_mx2
select
'${AnoMes}01' as ano_mes
,a.cli
,sum(isnull(saldop,0))/${MesAcum} AS saldo_acum_ctas_corrientes_mx
from 
#saldo_acum_ctas_corrientes_mx1 a
where
SUBSTRING('${AnoMes}',1,4) = SUBSTRING(CONVERT(CHAR(6),a.ano_mes),1,4)
group by a.cli
go

update #poa_posicion_actual
set poa_cct_mx_mto = saldo_acum_ctas_corrientes_mx
from #poa_posicion_actual A, #saldo_acum_ctas_corrientes_mx2 B
where
trim(A.cli) = trim(B.cli)
go

-- obtencion de saldo_acum_otr_vistas_mx
select 
a.ano_mes
,trim(a.cli) as cli
,sum(isnull(saldop,0)) as saldop
into #saldo_acum_otr_vistas_mx1
from 
dba.margen as a
,dba.lineas as b
,#uni_cli c
where
a.linea = b.linea
and trim(a.cli) = c.cliente
and a.ano_mes between ${Ano}01 and ${AnoMes}
and b.linea_grp3 = 'DVN'
and b.linea_grp4 = 'OTV'
and b.linea in ('43N','43Q','43R')
group by a.ano_mes,a.cli
go

drop table #saldo_acum_otr_vistas_mx2
go

create table #saldo_acum_otr_vistas_mx2(
ano_mes char(8)
,cli varchar(50)
,saldo_acum_otr_vistas_mx decimal(18,2)
)
go

INSERT INTO #saldo_acum_otr_vistas_mx2
select
'${AnoMes}01' as ano_mes
,a.cli
,sum(isnull(saldop,0))/${MesAcum} AS saldo_acum_otr_vistas_mx
from 
#saldo_acum_otr_vistas_mx1 a
where
SUBSTRING('${AnoMes}',1,4) = SUBSTRING(CONVERT(CHAR(6),a.ano_mes),1,4)
group by a.cli
go

update #poa_posicion_actual
set poa_otros_vistas_mx_mto   = saldo_acum_otr_vistas_mx
from #poa_posicion_actual A, #saldo_acum_otr_vistas_mx2 B
where
trim(A.cli) = trim(B.cli)
go

-- obtencion de saldo_acum_otr_vistas_mn
select 
a.ano_mes
,trim(a.cli) as cli
,sum(isnull(saldop,0)) as saldop
into #saldo_acum_otr_vistas_mn1
from 
dba.margen as a
,dba.lineas as b
,#uni_cli c
where
a.linea = b.linea
and trim(a.cli) = c.cliente
and a.ano_mes between ${Ano}01 and ${AnoMes}
and b.linea_grp3 = 'DVN'
and b.linea_grp4 = 'OTV'
and b.linea not in ('43N','43Q','43R')
group by a.ano_mes,a.cli
go

drop table #saldo_acum_otr_vistas_mn2
go

create table #saldo_acum_otr_vistas_mn2(
ano_mes char(8)
,cli varchar(50)
,saldo_acum_otr_vistas_mn decimal(18,2)
)
go

INSERT INTO #saldo_acum_otr_vistas_mn2
select
'${AnoMes}01' as ano_mes
,a.cli
,sum(isnull(saldop,0))/${MesAcum} AS saldo_acum_otr_vistas_mn
from 
#saldo_acum_otr_vistas_mn1 a
where
SUBSTRING('${AnoMes}',1,4) = SUBSTRING(CONVERT(CHAR(6),a.ano_mes),1,4)
group by a.cli
go

update #poa_posicion_actual
set poa_otros_vistas_mn_mto = saldo_acum_otr_vistas_mn
from #poa_posicion_actual A, #saldo_acum_otr_vistas_mn2 B
where
trim(A.cli) = trim(B.cli)
go

-- obtencion de saldo_acum_fact
select 
a.ano_mes
,trim(a.rut) as rut
,sum(isnull(valor,0)) as valor
into #saldo_acum_fact
from 
BSC.monto_fact_mes a
,#uni_cli c
where
 trim(a.rut) = trim(c.rut)
 AND trim(a.rut) not in ('','000CLI_X','000cli_x','1       ')
 and a.ano_mes between ${Ano}01 and ${AnoMes}
group by a.ano_mes,a.rut
go

drop table #saldo_acum_fact2
go

create table #saldo_acum_fact2(
ano_mes char(8)
,rut varchar(20)
,saldo_acum_fact decimal(18,2)
)
go

INSERT INTO #saldo_acum_fact2
select
'${AnoMes}01' as ano_mes
,a.rut
,sum(isnull(valor,0))/${MesAcum} AS saldo_acum_fact
from 
#saldo_acum_fact a
where
SUBSTRING('${AnoMes}',1,4) = SUBSTRING(CONVERT(CHAR(6),a.ano_mes),1,4)
group by a.rut
go

update #poa_posicion_actual
set poa_factoring_mto  = saldo_acum_fact
from #poa_posicion_actual A, #saldo_acum_fact2 B
where
trim(A.dec_rut) = trim(B.rut)
go

-- obtencion de saldo_acum_lea
select 
a.ano_mes
,trim(a.rut) as rut
,sum(isnull(valor,0)) as valor
into #saldo_acum_lea
from 
BSC.prm_col_lea a
,#uni_cli c
where
 trim(a.rut) = trim(c.rut)
 AND trim(a.rut) not in ('','000CLI_X','000cli_x','1       ')
 and a.ano_mes between ${Ano}01 and ${AnoMes}
group by a.ano_mes,a.rut
go

drop table #saldo_acum_lea2
go

create table #saldo_acum_lea2(
ano_mes char(8)
,rut varchar(20)
,saldo_acum_lea decimal(18,2)
)
go

INSERT INTO #saldo_acum_lea2
select
'${AnoMes}01' as ano_mes
,a.rut
,sum(isnull(valor,0))/${MesAcum} AS saldo_acum_lea
from 
#saldo_acum_lea a
where
SUBSTRING('${AnoMes}',1,4) = SUBSTRING(CONVERT(CHAR(6),a.ano_mes),1,4)
group by a.rut
go

update #poa_posicion_actual
set poa_leasing_mto  = saldo_acum_lea
from #poa_posicion_actual A, #saldo_acum_lea2 B
where
trim(A.dec_rut) = trim(B.rut)
go 

-- actualizacion poa_tot_saldo_vistas_mto
update #poa_posicion_actual
set poa_tot_saldo_vistas_mto = ISNULL(poa_cct_mn_mto,0) + ISNULL(poa_cct_mx_mto,0) + ISNULL(poa_otros_vistas_mn_mto,0) + ISNULL(poa_otros_vistas_mx_mto,0)
go

-- ACTUALIZACION CAMPO poa_tot_col_int_mto
select 
a.ano_mes
,trim(a.cli) as cli
,sum(isnull(saldop,0)) as saldop
into #poa_tot_col_int_mto
from 
dba.margen as a
,dba.lineas as b
,#uni_cli c
where
a.linea = b.linea
and trim(a.cli) = c.cliente
and a.ano_mes between ${Ano}01 and ${AnoMes}
and b.linea_grp3 = 'COL'
group by a.ano_mes,a.cli
go

drop table #poa_tot_col_int_mto2
go

create table #poa_tot_col_int_mto2(
ano_mes char(8)
,cli varchar(50)
,col_total decimal(18,2)
)
go

INSERT INTO #poa_tot_col_int_mto2
select
'${AnoMes}01' as ano_mes
,a.cli
,sum(isnull(saldop,0))/${MesAcum} AS col_total
from 
#poa_tot_col_int_mto a
where
SUBSTRING('${AnoMes}',1,4) = SUBSTRING(CONVERT(CHAR(6),a.ano_mes),1,4)
group by a.cli
go

update #poa_posicion_actual
set poa_tot_col_int_mto  = col_total + poa_factoring_mto  + poa_leasing_mto
from #poa_posicion_actual A, #poa_tot_col_int_mto2 B
where
trim(A.cli) = trim(B.cli)
go 

select 	'poa_posicion_actual|'+convert(char(8),dec_rut)+'|'+convert(char(6),ano_mes)+'01|'+convert(char(18),poa_tot_col_int_mto)+'|'+convert(char(18),poa_factoring_mto)+'|'+convert(char(18),poa_contingente_mto)+'|'+
convert(char(18),poa_hipotecario_mto)+'|'+convert(char(18),poa_leasing_mto)+'|'+convert(char(18),poa_creditos_lp_mto)+'|'+convert(char(18),poa_creditos_cp_mto)+'|'+convert(char(18),poa_comex_mto)+'|'+
convert(char(18),poa_tot_saldo_vistas_mto)+'|'+convert(char(18),poa_cct_mn_mto)+'|'+convert(char(18),poa_otros_vistas_mx_mto)+'|'+convert(char(18),poa_cct_mx_mto)+'|'+convert(char(18),poa_otros_vistas_mn_mto)
from #poa_posicion_actual
go

drop table #bca
go

EOF
	
	rc=$?
	
	if [ $rc -ne 0 ]
	then
		Mensaje "ERROR en Ejecucion BWS_Extract_Coa ${AnoMes} - Status final: $rc"
		Mensaje ""
		printlog "ERROR en Ejecucion BWS_Extract_Coa ${AnoMes} - Status final: $rc"
		printlog ""
		exit 11
	else
		Mensaje "OK en Ejecucion BWS_Extract_Coa ${AnoMes} - Status final: $rc"
		Mensaje ""
		printlog "OK en Ejecucion BWS_Extract_Coa ${AnoMes} - Status final: $rc"
		printlog ""
	fi
}

Ejecuta_Consulta_BWS_Extract_Coa_Hist()
{

	Mensaje "Comienza Ejecucion de BWS_Extract_Coa_Hist"
	printlog "Comienza Ejecucion de BWS_Extract_Coa_Hist"
	echo "EJECUCION de BWS_Extract_Coa_Hist" >> $DirLog/$ARCHLOG
	
	FechaFin=$AnoMes
	AnoMes=${AnoMesIni}
	Ano=`echo ${AnoMesIni} | cut -c1-4`
	Mes=`echo ${AnoMesIni} | cut -c5,6`
	Ejecuta_Consulta_BWS_Extract_Coa ${Mes}

	while [ $AnoMes -lt $FechaFin ]
	do
		if [ $Mes -eq 12 ]
		then
			Ano=`expr $Ano + 1`
			Mes=01
			AnoMes=${Ano}${Mes}
		else
			AnoMes=`expr $AnoMes + 1`
			Ano=`echo ${AnoMes} | cut -c1-4`
			Mes=`echo ${AnoMes} | cut -c5,6`
		fi
		
		Ejecuta_Consulta_BWS_Extract_Coa ${Mes}
	done
}